{
  "name": "PC Garage price with IF",
  "description": "Blank Process",
  "main": "Main.xaml",
  "dependencies": {
    "UiPath.Excel.Activities": "[2.9.3]",
    "UiPath.Mail.Activities": "[1.9.3]",
    "UiPath.System.Activities": "[20.10.1]",
    "UiPath.UIAutomation.Activities": "[20.10.6]",
    "UiPath.Word.Activities": "[1.5.3]"
  },
  "webServices": [],
  "entitiesStores": [],
  "schemaVersion": "4.0",
  "studioVersion": "20.10.2.0",
  "projectVersion": "1.0.0",
  "runtimeOptions": {
    "autoDispose": false,
    "isPausable": true,
    "requiresUserInteraction": true,
    "supportsPersistence": false,
    "excludedLoggedData": [
      "Private:*",
      "*password*"
    ],
    "executionType": "Workflow",
    "readyForPiP": false,
    "startsInPiP": false
  },
  "designOptions": {
    "projectProfile": "Developement",
    "outputType": "Process",
    "libraryOptions": {
      "includeOriginalXaml": false,
      "privateWorkflows": []
    },
    "processOptions": {
      "ignoredFiles": []
    },
    "fileInfoCollection": [],
    "modernBehavior": false
  },
  "expressionLanguage": "VisualBasic",
  "entryPoints": [
    {
      "filePath": "Main.xaml",
      "uniqueId": "f83ab6b2-d3ed-4a97-bfdb-af0f52cde7c7",
      "input": [],
      "output": []
    }
  ],
  "isTemplate": false,
  "templateProjectData": {},
  "publishData": {}
}